<svg width="30" height="20" viewBox="0 0 30 20" fill="none" xmlns="http://www.w3.org/2000/svg">
<path d="M19.5 7.5C16.3 3.5 5.16667 0.833333 0 0V20H19.5C39 20 23.5 12.5 19.5 7.5Z" fill="white"/>
<path d="M24.5 11.76L20.5 8.5C17.2677 8.66 7.88883 6 5.52785 6C2.57663 6 6.60628 7.45853 9.74388 9.84C12.2735 11.76 19.1597 12.4 24.5 11.76Z" fill="black"/>
</svg>
